1a2S/LSD/praticas/trab4/part2/simulation/qsim/Register_Demo.msim.vcd
$comment
	File created using the following command:
		vcd file Register_Demo.msim.vcd -direction
$end
$date
	Tue Mar 21 14:03:16 2023
$end
$version
	ModelSim Version 2020.1
$end
$timescale
	1ps
$end

$scope module register8_vhd_vec_tst $end
$var wire 1 ! clk $end
$var wire 1 " d [7] $end
$var wire 1 # d [6] $end
$var wire 1 $ d [5] $end
$var wire 1 % d [4] $end
$var wire 1 & d [3] $end
$var wire 1 ' d [2] $end
$var wire 1 ( d [1] $end
$var wire 1 ) d [0] $end
$var wire 1 * q [7] $end
$var wire 1 + q [6] $end
$var wire 1 , q [5] $end
$var wire 1 - q [4] $end
$var wire 1 . q [3] $end
$var wire 1 / q [2] $end
$var wire 1 0 q [1] $end
$var wire 1 1 q [0] $end
$var wire 1 2 reset $end
$var wire 1 3 set $end

$scope module i1 $end
$var wire 1 4 gnd $end
$var wire 1 5 vcc $end
$var wire 1 6 unknown $end
$var wire 1 7 devoe $end
$var wire 1 8 devclrn $end
$var wire 1 9 devpor $end
$var wire 1 : ww_devoe $end
$var wire 1 ; ww_devclrn $end
$var wire 1 < ww_devpor $end
$var wire 1 = ww_clk $end
$var wire 1 > ww_d [7] $end
$var wire 1 ? ww_d [6] $end
$var wire 1 @ ww_d [5] $end
$var wire 1 A ww_d [4] $end
$var wire 1 B ww_d [3] $end
$var wire 1 C ww_d [2] $end
$var wire 1 D ww_d [1] $end
$var wire 1 E ww_d [0] $end
$var wire 1 F ww_set $end
$var wire 1 G ww_reset $end
$var wire 1 H ww_q [7] $end
$var wire 1 I ww_q [6] $end
$var wire 1 J ww_q [5] $end
$var wire 1 K ww_q [4] $end
$var wire 1 L ww_q [3] $end
$var wire 1 M ww_q [2] $end
$var wire 1 N ww_q [1] $end
$var wire 1 O ww_q [0] $end
$var wire 1 P \set~input_o\ $end
$var wire 1 Q \q[0]~output_o\ $end
$var wire 1 R \q[1]~output_o\ $end
$var wire 1 S \q[2]~output_o\ $end
$var wire 1 T \q[3]~output_o\ $end
$var wire 1 U \q[4]~output_o\ $end
$var wire 1 V \q[5]~output_o\ $end
$var wire 1 W \q[6]~output_o\ $end
$var wire 1 X \q[7]~output_o\ $end
$var wire 1 Y \clk~input_o\ $end
$var wire 1 Z \d[0]~input_o\ $end
$var wire 1 [ \reset~input_o\ $end
$var wire 1 \ \q~0_combout\ $end
$var wire 1 ] \q[0]~reg0_q\ $end
$var wire 1 ^ \d[1]~input_o\ $end
$var wire 1 _ \q~1_combout\ $end
$var wire 1 ` \q[1]~reg0_q\ $end
$var wire 1 a \d[2]~input_o\ $end
$var wire 1 b \q~2_combout\ $end
$var wire 1 c \q[2]~reg0_q\ $end
$var wire 1 d \d[3]~input_o\ $end
$var wire 1 e \q~3_combout\ $end
$var wire 1 f \q[3]~reg0_q\ $end
$var wire 1 g \d[4]~input_o\ $end
$var wire 1 h \q~4_combout\ $end
$var wire 1 i \q[4]~reg0_q\ $end
$var wire 1 j \d[5]~input_o\ $end
$var wire 1 k \q~5_combout\ $end
$var wire 1 l \q[5]~reg0_q\ $end
$var wire 1 m \d[6]~input_o\ $end
$var wire 1 n \q~6_combout\ $end
$var wire 1 o \q[6]~reg0_q\ $end
$var wire 1 p \d[7]~input_o\ $end
$var wire 1 q \q~7_combout\ $end
$var wire 1 r \q[7]~reg0_q\ $end
$upscope $end
$upscope $end
$enddefinitions $end
#0
$dumpvars
0!
02
03
04
15
x6
17
18
19
1:
1;
1<
0=
0F
0G
0P
0Q
0R
0S
0T
0U
0V
0W
0X
0Y
0Z
0[
0\
0]
0^
0_
0`
0a
0b
0c
0d
0e
0f
0g
0h
0i
0j
0k
0l
0m
0n
0o
0p
0q
0r
0"
0#
0$
0%
0&
0'
0(
0)
0>
0?
0@
0A
0B
0C
0D
0E
0H
0I
0J
0K
0L
0M
0N
0O
0*
0+
0,
0-
0.
0/
00
01
$end
#10000
1)
1E
1Z
1\
#20000
0)
1(
0E
1D
1^
0Z
0\
1_
#30000
1)
1E
1Z
1\
#40000
0)
0(
1'
0E
0D
1C
1a
0^
0Z
0\
0_
1b
#50000
1)
1!
1E
1=
1Y
1Z
1\
1c
1S
1M
1/
#60000
0)
1(
0E
1D
1^
0Z
0\
1_
#70000
1)
1E
1Z
1\
#80000
0)
0(
0'
1&
0E
0D
0C
1B
1d
0a
0^
0Z
0\
0_
0b
1e
#90000
1)
1E
1Z
1\
#100000
0)
1(
0!
0E
1D
0=
0Y
1^
0Z
0\
1_
#110000
1)
1E
1Z
1\
#120000
0)
0(
1'
0E
0D
1C
1a
0^
0Z
0\
0_
1b
#130000
1)
1E
1Z
1\
#140000
0)
1(
0E
1D
1^
0Z
0\
1_
#150000
1)
1!
1E
1=
1Y
1Z
1\
1`
1f
1T
1R
1L
1N
10
1.
#160000
0)
0(
0'
0&
1%
0E
0D
0C
0B
1A
1g
0d
0a
0^
0Z
0\
0_
0b
0e
1h
#170000
1)
1E
1Z
1\
#180000
0)
1(
0E
1D
1^
0Z
0\
1_
#190000
1)
1E
1Z
1\
#200000
0)
0(
1'
0!
0E
0D
1C
0=
0Y
1a
0^
0Z
0\
0_
1b
#210000
1)
1E
1Z
1\
#220000
0)
1(
0E
1D
1^
0Z
0\
1_
#230000
1)
1E
1Z
1\
#240000
0)
0(
0'
1&
0E
0D
0C
1B
1d
0a
0^
0Z
0\
0_
0b
1e
#250000
1)
1!
1E
1=
1Y
1Z
1\
0`
0c
1i
1U
0S
0R
1K
0M
0N
00
0/
1-
#260000
0)
1(
0E
1D
1^
0Z
0\
1_
#270000
1)
1E
1Z
1\
#280000
0)
0(
1'
12
0E
0D
1C
1G
1[
1a
0^
0Z
0\
0_
0e
0h
#290000
1)
1E
1Z
#300000
0)
1(
0!
0E
1D
0=
0Y
1^
0Z
#310000
1)
1E
1Z
#320000
0)
0(
0'
0&
0%
1$
0E
0D
0C
0B
0A
1@
1j
0g
0d
0a
0^
0Z
#330000
1)
02
1E
0G
0[
1Z
1\
1k
#340000
0)
1(
0E
1D
1^
0Z
0\
1_
#350000
1)
1!
1E
1=
1Y
1Z
1\
1`
0f
0i
1l
1V
0U
0T
1R
1J
0K
0L
1N
10
0.
0-
1,
#360000
0)
0(
1'
0E
0D
1C
1a
0^
0Z
0\
0_
1b
#370000
1)
1E
1Z
1\
#380000
0)
1(
0E
1D
1^
0Z
0\
1_
#390000
1)
1E
1Z
1\
#400000
0)
0(
0'
0!
1&
0E
0D
0C
1B
0=
0Y
1d
0a
0^
0Z
0\
0_
0b
1e
#410000
1)
1E
1Z
1\
#420000
0)
1(
0E
1D
1^
0Z
0\
1_
#430000
1)
1E
1Z
1\
#440000
0)
0(
1'
0E
0D
1C
1a
0^
0Z
0\
0_
1b
#450000
1)
1!
1E
1=
1Y
1Z
1\
0`
1c
1f
1T
1S
0R
1L
1M
0N
00
1/
1.
#460000
0)
1(
0E
1D
1^
0Z
0\
1_
#470000
1)
1E
1Z
1\
#480000
0)
0(
0'
0&
1%
0E
0D
0C
0B
1A
1g
0d
0a
0^
0Z
0\
0_
0b
0e
1h
#490000
1)
1E
1Z
1\
#500000
0)
1(
0!
0E
1D
0=
0Y
1^
0Z
0\
1_
#510000
1)
1E
1Z
1\
#520000
0)
0(
1'
0E
0D
1C
1a
0^
0Z
0\
0_
1b
#530000
1)
1E
1Z
1\
#540000
0)
1(
0E
1D
1^
0Z
0\
1_
#550000
1)
1!
1E
1=
1Y
1Z
1\
1`
0f
1i
1U
0T
1R
1K
0L
1N
10
0.
1-
#560000
0)
0(
0'
1&
0E
0D
0C
1B
1d
0a
0^
0Z
0\
0_
0b
1e
#570000
1)
1E
1Z
1\
#580000
0)
1(
0E
1D
1^
0Z
0\
1_
#590000
1)
1E
1Z
1\
#600000
0)
0(
1'
0!
0E
0D
1C
0=
0Y
1a
0^
0Z
0\
0_
1b
#610000
1)
1E
1Z
1\
#620000
0)
1(
0E
1D
1^
0Z
0\
1_
#630000
1)
1E
1Z
1\
#640000
0)
0(
0'
0&
0%
0$
1#
0E
0D
0C
0B
0A
0@
1?
1m
0j
0g
0d
0a
0^
0Z
0\
0_
0b
0e
0h
0k
1n
#650000
1)
1!
1E
1=
1Y
1Z
1\
0`
0c
0i
0l
1o
1W
0V
0U
0S
0R
1I
0J
0K
0M
0N
00
0/
0-
0,
1+
#660000
0)
1(
0E
1D
1^
0Z
0\
1_
#670000
1)
1E
1Z
1\
#680000
0)
0(
1'
0E
0D
1C
1a
0^
0Z
0\
0_
1b
#690000
1)
1E
1Z
1\
#700000
0)
1(
0!
0E
1D
0=
0Y
1^
0Z
0\
1_
#710000
1)
1E
1Z
1\
#720000
0)
0(
0'
1&
0E
0D
0C
1B
1d
0a
0^
0Z
0\
0_
0b
1e
#730000
1)
1E
1Z
1\
#740000
0)
1(
0E
1D
1^
0Z
0\
1_
#750000
1)
1!
1E
1=
1Y
1Z
1\
1`
1f
1T
1R
1L
1N
10
1.
#760000
0)
0(
1'
0E
0D
1C
1a
0^
0Z
0\
0_
1b
#770000
1)
1E
1Z
1\
#780000
0)
1(
0E
1D
1^
0Z
0\
1_
#790000
1)
1E
1Z
1\
#800000
0)
0(
0'
0!
0&
1%
0E
0D
0C
0B
1A
0=
0Y
1g
0d
0a
0^
0Z
0\
0_
0b
0e
1h
#810000
1)
1E
1Z
1\
#820000
0)
1(
0E
1D
1^
0Z
0\
1_
#830000
1)
1E
1Z
1\
#840000
0)
0(
1'
0E
0D
1C
1a
0^
0Z
0\
0_
1b
#850000
1)
1!
1E
1=
1Y
1Z
1\
0`
1c
0f
1i
1U
0T
1S
0R
1K
0L
1M
0N
00
1/
0.
1-
#860000
0)
1(
0E
1D
1^
0Z
0\
1_
#870000
1)
1E
1Z
1\
#880000
0)
0(
0'
1&
0E
0D
0C
1B
1d
0a
0^
0Z
0\
0_
0b
1e
#890000
1)
1E
1Z
1\
#900000
0)
1(
0!
0E
1D
0=
0Y
1^
0Z
0\
1_
#910000
1)
1E
1Z
1\
#920000
0)
0(
1'
0E
0D
1C
1a
0^
0Z
0\
0_
1b
#930000
1)
1E
1Z
1\
#940000
0)
1(
0E
1D
1^
0Z
0\
1_
#950000
1)
1!
1E
1=
1Y
1Z
1\
1`
1f
1T
1R
1L
1N
10
1.
#960000
0)
0(
0'
0&
0%
1$
0E
0D
0C
0B
0A
1@
1j
0g
0d
0a
0^
0Z
0\
0_
0b
0e
0h
1k
#970000
1)
1E
1Z
1\
#980000
0)
1(
0E
1D
1^
0Z
0\
1_
#990000
1)
1E
1Z
1\
