1a2S/LSD/praticas/trab6/part2/simulation/qsim/SeqShiftUnit_Demo.msim.vcd
$comment
	File created using the following command:
		vcd file SeqShiftUnit_Demo.msim.vcd -direction
$end
$date
	Tue Apr 11 14:42:37 2023
$end
$version
	ModelSim Version 2020.1
$end
$timescale
	1ps
$end

$scope module seqshiftunit_vhd_vec_tst $end
$var wire 1 ! clk $end
$var wire 1 " dataIn [7] $end
$var wire 1 # dataIn [6] $end
$var wire 1 $ dataIn [5] $end
$var wire 1 % dataIn [4] $end
$var wire 1 & dataIn [3] $end
$var wire 1 ' dataIn [2] $end
$var wire 1 ( dataIn [1] $end
$var wire 1 ) dataIn [0] $end
$var wire 1 * dataOut [7] $end
$var wire 1 + dataOut [6] $end
$var wire 1 , dataOut [5] $end
$var wire 1 - dataOut [4] $end
$var wire 1 . dataOut [3] $end
$var wire 1 / dataOut [2] $end
$var wire 1 0 dataOut [1] $end
$var wire 1 1 dataOut [0] $end
$var wire 1 2 dirLeft $end
$var wire 1 3 loadEn $end
$var wire 1 4 rotate $end
$var wire 1 5 shArith $end
$var wire 1 6 siLeft $end
$var wire 1 7 siRight $end

$scope module i1 $end
$var wire 1 8 gnd $end
$var wire 1 9 vcc $end
$var wire 1 : unknown $end
$var wire 1 ; devoe $end
$var wire 1 < devclrn $end
$var wire 1 = devpor $end
$var wire 1 > ww_devoe $end
$var wire 1 ? ww_devclrn $end
$var wire 1 @ ww_devpor $end
$var wire 1 A ww_clk $end
$var wire 1 B ww_dataIn [7] $end
$var wire 1 C ww_dataIn [6] $end
$var wire 1 D ww_dataIn [5] $end
$var wire 1 E ww_dataIn [4] $end
$var wire 1 F ww_dataIn [3] $end
$var wire 1 G ww_dataIn [2] $end
$var wire 1 H ww_dataIn [1] $end
$var wire 1 I ww_dataIn [0] $end
$var wire 1 J ww_siLeft $end
$var wire 1 K ww_siRight $end
$var wire 1 L ww_loadEn $end
$var wire 1 M ww_rotate $end
$var wire 1 N ww_dirLeft $end
$var wire 1 O ww_shArith $end
$var wire 1 P ww_dataOut [7] $end
$var wire 1 Q ww_dataOut [6] $end
$var wire 1 R ww_dataOut [5] $end
$var wire 1 S ww_dataOut [4] $end
$var wire 1 T ww_dataOut [3] $end
$var wire 1 U ww_dataOut [2] $end
$var wire 1 V ww_dataOut [1] $end
$var wire 1 W ww_dataOut [0] $end
$var wire 1 X \dataOut[0]~output_o\ $end
$var wire 1 Y \dataOut[1]~output_o\ $end
$var wire 1 Z \dataOut[2]~output_o\ $end
$var wire 1 [ \dataOut[3]~output_o\ $end
$var wire 1 \ \dataOut[4]~output_o\ $end
$var wire 1 ] \dataOut[5]~output_o\ $end
$var wire 1 ^ \dataOut[6]~output_o\ $end
$var wire 1 _ \dataOut[7]~output_o\ $end
$var wire 1 ` \clk~input_o\ $end
$var wire 1 a \dirLeft~input_o\ $end
$var wire 1 b \rotate~input_o\ $end
$var wire 1 c \siRight~input_o\ $end
$var wire 1 d \shArith~input_o\ $end
$var wire 1 e \s_shiftReg[7]~9_combout\ $end
$var wire 1 f \s_shiftReg[7]~10_combout\ $end
$var wire 1 g \s_shiftReg[7]~7_combout\ $end
$var wire 1 h \dataIn[7]~input_o\ $end
$var wire 1 i \loadEn~input_o\ $end
$var wire 1 j \s_shiftReg[6]~6_combout\ $end
$var wire 1 k \dataIn[6]~input_o\ $end
$var wire 1 l \s_shiftReg[5]~5_combout\ $end
$var wire 1 m \dataIn[5]~input_o\ $end
$var wire 1 n \s_shiftReg[4]~4_combout\ $end
$var wire 1 o \dataIn[4]~input_o\ $end
$var wire 1 p \s_shiftReg[3]~3_combout\ $end
$var wire 1 q \dataIn[3]~input_o\ $end
$var wire 1 r \s_shiftReg[2]~2_combout\ $end
$var wire 1 s \dataIn[2]~input_o\ $end
$var wire 1 t \s_shiftReg[1]~1_combout\ $end
$var wire 1 u \dataIn[1]~input_o\ $end
$var wire 1 v \siLeft~input_o\ $end
$var wire 1 w \s_shiftReg~8_combout\ $end
$var wire 1 x \s_shiftReg[0]~0_combout\ $end
$var wire 1 y \dataIn[0]~input_o\ $end
$var wire 1 z s_shiftReg [7] $end
$var wire 1 { s_shiftReg [6] $end
$var wire 1 | s_shiftReg [5] $end
$var wire 1 } s_shiftReg [4] $end
$var wire 1 ~ s_shiftReg [3] $end
$var wire 1 !! s_shiftReg [2] $end
$var wire 1 "! s_shiftReg [1] $end
$var wire 1 #! s_shiftReg [0] $end
$var wire 1 $! \ALT_INV_clk~input_o\ $end
$upscope $end
$upscope $end
$enddefinitions $end
#0
$dumpvars
0!
12
03
04
15
06
07
08
19
x:
1;
1<
1=
1>
1?
1@
0A
0J
0K
0L
0M
1N
1O
0X
0Y
0Z
0[
0\
0]
0^
0_
0`
1a
0b
0c
1d
0e
1f
0g
0h
0i
0j
0k
0l
0m
0n
0o
0p
0q
0r
0s
0t
0u
0v
0w
0x
1y
1$!
0"
0#
0$
0%
0&
0'
0(
1)
0B
0C
0D
0E
0F
0G
0H
1I
0P
0Q
0R
0S
0T
0U
0V
0W
0z
0{
0|
0}
0~
0!!
0"!
0#!
0*
0+
0,
0-
0.
0/
00
01
$end
#12500
1!
1A
1`
0$!
#25000
0!
0A
0`
1$!
#37500
1!
1A
1`
0$!
#50000
0!
0A
0`
1$!
#62500
1!
1A
1`
0$!
#70000
0)
0I
0y
#75000
0!
0A
0`
1$!
#87500
1!
1A
1`
0$!
#100000
0!
0A
0`
1$!
#112500
1!
1A
1`
0$!
#125000
0!
0A
0`
1$!
#137500
1!
1A
1`
0$!
#150000
0!
0A
0`
1$!
#162500
1!
1A
1`
0$!
#175000
0!
0A
0`
1$!
#187500
1!
1A
1`
0$!
#200000
0!
0A
0`
1$!
#212500
1!
1A
1`
0$!
#225000
0!
0A
0`
1$!
#237500
1!
1A
1`
0$!
#250000
0!
0A
0`
1$!
#262500
1!
1A
1`
0$!
#275000
0!
0A
0`
1$!
#287500
1!
1A
1`
0$!
#300000
0!
0A
0`
1$!
#312500
1!
1A
1`
0$!
#325000
0!
0A
0`
1$!
#337500
1!
1A
1`
0$!
#350000
0!
0A
0`
1$!
#362500
1!
1A
1`
0$!
#375000
0!
0A
0`
1$!
#387500
1!
1A
1`
0$!
#400000
0!
0A
0`
1$!
#412500
1!
1A
1`
0$!
#425000
0!
0A
0`
1$!
#437500
1!
1A
1`
0$!
#450000
0!
0A
0`
1$!
#462500
1!
1A
1`
0$!
#475000
0!
0A
0`
1$!
#487500
1!
1A
1`
0$!
#500000
0!
0A
0`
1$!
#512500
1!
1A
1`
0$!
#525000
0!
0A
0`
1$!
#537500
1!
1A
1`
0$!
#550000
0!
0A
0`
1$!
#562500
1!
1A
1`
0$!
#575000
0!
0A
0`
1$!
#587500
1!
1A
1`
0$!
#600000
0!
0A
0`
1$!
#612500
1!
1A
1`
0$!
#625000
0!
0A
0`
1$!
#637500
1!
1A
1`
0$!
#650000
0!
0A
0`
1$!
#662500
1!
1A
1`
0$!
#675000
0!
0A
0`
1$!
#687500
1!
1A
1`
0$!
#700000
0!
0A
0`
1$!
#712500
1!
1A
1`
0$!
#725000
0!
0A
0`
1$!
#737500
1!
1A
1`
0$!
#750000
0!
0A
0`
1$!
#762500
1!
1A
1`
0$!
#775000
0!
0A
0`
1$!
#787500
1!
1A
1`
0$!
#800000
0!
0A
0`
1$!
#812500
1!
1A
1`
0$!
#825000
0!
0A
0`
1$!
#837500
1!
1A
1`
0$!
#850000
0!
0A
0`
1$!
#862500
1!
1A
1`
0$!
#875000
0!
0A
0`
1$!
#887500
1!
1A
1`
0$!
#900000
0!
0A
0`
1$!
#912500
1!
1A
1`
0$!
#925000
0!
0A
0`
1$!
#937500
1!
1A
1`
0$!
#950000
0!
0A
0`
1$!
#962500
1!
1A
1`
0$!
#975000
0!
0A
0`
1$!
#987500
1!
1A
1`
0$!
