1a1S/ISD/Aula1113/ex5/simulation/qsim/SpecialCount4.msim.vcd
$comment
	File created using the following command:
		vcd file SpecialCount4.msim.vcd -direction
$end
$date
	Tue Jan 03 12:49:05 2023
$end
$version
	ModelSim Version 2020.1
$end
$timescale
	1ps
$end

$scope module SpecialCount4_vlg_vec_tst $end
$var reg 1 ! clk $end
$var reg 1 " init $end
$var wire 1 # Q0 $end
$var wire 1 $ Q1 $end
$var wire 1 % Q2 $end
$var wire 1 & Q3 $end

$scope module i1 $end
$var wire 1 ' gnd $end
$var wire 1 ( vcc $end
$var wire 1 ) unknown $end
$var tri1 1 * devclrn $end
$var tri1 1 + devpor $end
$var tri1 1 , devoe $end
$var wire 1 - Q0~output_o $end
$var wire 1 . Q1~output_o $end
$var wire 1 / Q2~output_o $end
$var wire 1 0 Q3~output_o $end
$var wire 1 1 clk~input_o $end
$var wire 1 2 init~input_o $end
$var wire 1 3 inst|sub|106~combout $end
$var wire 1 4 inst|sub|132~combout $end
$var wire 1 5 inst|sub|134~q $end
$var wire 1 6 inst4~0_combout $end
$var wire 1 7 inst|sub|110~combout $end
$var wire 1 8 inst|sub|111~q $end
$var wire 1 9 inst|sub|125~combout $end
$var wire 1 : inst|sub|122~q $end
$var wire 1 ; inst|sub|71~combout $end
$var wire 1 < inst|sub|34~q $end
$upscope $end
$upscope $end
$enddefinitions $end
#0
$dumpvars
0!
0"
0#
0$
0%
0&
0'
1(
x)
1*
1+
1,
0-
0.
0/
00
01
02
03
04
05
06
07
08
19
0:
0;
0<
$end
#20000
1!
1"
12
11
16
1;
09
1:
1/
1%
19
#40000
0!
01
#60000
1!
11
1<
1-
1#
0;
17
#80000
0!
01
#100000
1!
11
0<
18
1.
0-
0#
1$
1;
#120000
0!
01
#140000
1!
11
1<
1-
13
1#
0;
09
07
14
#160000
0!
01
#180000
1!
11
0<
0:
08
15
10
0.
0/
0-
03
0#
0%
0$
1&
1;
#200000
0!
01
#220000
1!
11
1<
1-
1#
0;
17
#240000
0!
01
#260000
1!
11
0<
18
1.
0-
0#
1$
1;
#280000
0!
01
#300000
1!
11
1<
1-
13
1#
0;
19
07
#320000
0!
01
#340000
1!
11
0<
1:
08
0.
1/
0-
03
06
0#
1%
0$
04
#360000
0!
01
#380000
1!
11
05
00
16
0&
1;
#400000
0!
01
#420000
1!
11
1<
1-
1#
0;
17
#440000
0!
01
#460000
1!
11
0<
18
1.
0-
0#
1$
1;
#480000
0!
01
#500000
1!
11
1<
1-
13
1#
0;
09
07
14
#520000
0!
01
#540000
1!
11
0<
0:
08
15
10
0.
0/
0-
03
0#
0%
0$
1&
1;
#560000
0!
01
#580000
1!
11
1<
1-
1#
0;
17
#600000
0!
01
#620000
1!
11
0<
18
1.
0-
0#
1$
1;
#640000
0!
01
#660000
1!
11
1<
1-
13
1#
0;
19
07
#680000
0!
01
#700000
1!
11
0<
1:
08
0.
1/
0-
03
06
0#
1%
0$
04
#720000
0!
01
#740000
1!
11
05
00
16
0&
1;
#760000
0!
01
#780000
1!
11
1<
1-
1#
0;
17
#800000
0!
01
#820000
1!
11
0<
18
1.
0-
0#
1$
1;
#840000
0!
01
#860000
1!
11
1<
1-
13
1#
0;
09
07
14
#880000
0!
01
#900000
1!
11
0<
0:
08
15
10
0.
0/
0-
03
0#
0%
0$
1&
1;
#920000
0!
01
#940000
1!
11
1<
1-
1#
0;
17
#960000
0!
01
#980000
1!
11
0<
18
1.
0-
0#
1$
1;
