1a1S/ISD/Sim1/simulation/qsim/testesim1.msim.vcd
$comment
	File created using the following command:
		vcd file testesim1.msim.vcd -direction
$end
$date
	Tue Dec 06 12:42:26 2022
$end
$version
	ModelSim Version 2020.1
$end
$timescale
	1ps
$end

$scope module ex3_vlg_vec_tst $end
$var reg 1 ! A $end
$var reg 1 " B $end
$var reg 1 # C $end
$var reg 1 $ D $end
$var wire 1 % F $end

$scope module i1 $end
$var wire 1 & gnd $end
$var wire 1 ' vcc $end
$var wire 1 ( unknown $end
$var tri1 1 ) devclrn $end
$var tri1 1 * devpor $end
$var tri1 1 + devoe $end
$var wire 1 , F~output_o $end
$var wire 1 - A~input_o $end
$var wire 1 . B~input_o $end
$var wire 1 / D~input_o $end
$var wire 1 0 C~input_o $end
$var wire 1 1 inst|inst1|22~0_combout $end
$upscope $end
$upscope $end
$enddefinitions $end
#0
$dumpvars
0!
1"
0#
1$
0%
0&
1'
x(
1)
1*
1+
0,
0-
1.
1/
00
01
$end
#5000
1#
0$
10
0/
11
1,
1%
#10000
0"
0#
1$
0.
00
1/
01
0,
0%
#15000
1!
1#
1-
10
#20000
0$
0/
11
1,
1%
#25000
1"
1.
01
0,
0%
#30000
1$
1/
11
1,
1%
#35000
0#
00
#40000
0$
0/
#45000
0!
0"
1$
0-
0.
1/
01
0,
0%
#50000
1"
0$
1.
0/
#55000
1#
1!
1$
10
1-
1/
11
1,
1%
#60000
0"
0#
0.
00
01
0,
0%
#65000
0!
0$
1"
1#
0-
0/
1.
10
11
1,
1%
#70000
1!
1$
0"
1-
1/
0.
01
0,
0%
#75000
0!
1"
0-
1.
#80000
0#
0$
1!
00
0/
1-
11
1,
1%
#85000
1$
1/
#90000
0"
1#
0!
0.
10
0-
01
0,
0%
#95000
1"
1!
1.
1-
11
1,
1%
#100000
0#
0"
0!
00
0.
0-
01
0,
0%
#105000
0$
1#
1"
0/
10
1.
11
1,
1%
#110000
1$
0#
0"
1/
00
0.
01
0,
0%
#115000
0$
0/
11
1,
1%
#120000
1$
1/
01
0,
0%
#125000
1!
1"
0$
1-
1.
0/
11
1,
1%
#130000
0!
0"
1$
0-
0.
1/
01
0,
0%
#140000
1#
1!
1"
0$
10
1-
1.
0/
#145000
0!
0"
0-
0.
11
1,
1%
#150000
0#
1$
00
1/
01
0,
0%
#155000
1#
0$
10
0/
11
1,
1%
#160000
1!
0#
1-
00
#165000
0!
0-
#170000
1"
1$
1.
1/
01
0,
0%
#175000
1#
1!
0"
10
1-
0.
#180000
0$
0#
0!
1"
0/
00
0-
1.
#185000
1$
1!
1/
1-
11
1,
1%
#190000
1#
0$
0!
10
0/
0-
#195000
0"
0#
1!
0.
00
1-
#200000
1$
1"
1#
1/
1.
10
#205000
0$
0"
0#
0/
0.
00
#210000
0!
1"
1#
0-
1.
10
#215000
1$
0"
1/
0.
01
0,
0%
#220000
0#
1"
00
1.
#225000
1#
0"
10
0.
#230000
1"
1.
#240000
1!
0$
1-
0/
#245000
0"
1$
0.
1/
#250000
0!
0$
0-
0/
11
1,
1%
#255000
0#
1!
00
1-
#260000
1"
1.
#265000
1$
1#
0!
0"
1/
10
0-
0.
01
0,
0%
#275000
0$
0#
1!
0/
00
1-
11
1,
1%
#280000
1"
1#
0!
1.
10
0-
#285000
1!
1-
01
0,
0%
#290000
0"
0.
11
1,
1%
#295000
0#
0!
00
0-
#300000
1$
1"
1#
1!
1/
1.
10
1-
#305000
0!
0-
01
0,
0%
#310000
0#
00
#315000
0"
0.
#320000
1!
1#
1-
10
#325000
0$
1"
0!
0/
1.
0-
11
1,
1%
#330000
1$
0"
1/
0.
01
0,
0%
#335000
0#
1!
0$
1"
00
1-
0/
1.
11
1,
1%
#340000
0!
1$
0-
1/
01
0,
0%
#350000
0"
0$
0.
0/
11
1,
1%
#355000
1!
1$
1-
1/
01
0,
0%
#360000
1#
0!
0$
10
0-
0/
11
1,
1%
#370000
1"
0#
1$
1.
00
1/
01
0,
0%
#375000
0$
0/
#380000
1$
1/
#385000
1!
0"
0$
1-
0.
0/
11
1,
1%
#390000
1#
1"
1$
10
1.
1/
#395000
0!
0#
0"
0-
00
0.
01
0,
0%
#400000
0$
1!
1#
1"
0/
1-
10
1.
#405000
1$
0!
0"
1/
0-
0.
#410000
0$
1!
1"
0/
1-
1.
#415000
0!
0-
11
1,
1%
#420000
1$
1!
1/
1-
#430000
0#
0"
0$
00
0.
0/
#435000
1#
10
#440000
1"
1.
01
0,
0%
#450000
0#
0"
00
0.
11
1,
1%
#455000
1$
1#
1"
1/
10
1.
#465000
0!
0$
0"
0-
0/
0.
#470000
1$
1"
1/
1.
01
0,
0%
#475000
0"
0.
#480000
0#
1"
00
1.
#485000
0"
0.
#495000
1!
0$
1-
0/
11
1,
1%
#500000
1"
1.
#505000
0!
0"
0-
0.
#510000
1$
1!
1"
1/
1-
1.
#515000
0$
0!
0"
0/
0-
0.
#520000
1#
1!
1"
10
1-
1.
01
0,
0%
#525000
1$
0"
1/
0.
#530000
0$
1"
0/
1.
#535000
0#
0!
0"
00
0-
0.
11
1,
1%
#540000
1!
1-
#545000
1$
1#
0!
1/
10
0-
01
0,
0%
#550000
0$
0/
11
1,
1%
#555000
1!
1$
1-
1/
01
0,
0%
#560000
1"
1.
11
1,
1%
#565000
0!
0"
0-
0.
01
0,
0%
#570000
1!
1-
#575000
0#
0$
1"
0!
00
0/
1.
0-
#580000
1#
1$
1!
10
1/
1-
11
1,
1%
#585000
0!
0-
01
0,
0%
#590000
0"
0#
0.
00
#595000
1!
1#
1-
10
#600000
0$
0/
11
1,
1%
#605000
1"
0#
1.
00
#610000
0!
1$
0"
0-
1/
0.
01
0,
0%
#615000
1#
10
#620000
1!
0#
1-
00
#625000
1#
10
#630000
0$
0/
11
1,
1%
#635000
1$
1/
01
0,
0%
#640000
1"
1.
11
1,
1%
#645000
0#
0$
00
0/
#650000
0!
1#
1$
0-
10
1/
01
0,
0%
#655000
0#
00
#660000
1#
10
#665000
0"
1!
0.
1-
#675000
0$
0/
11
1,
1%
#680000
1"
0!
1.
0-
#685000
1$
1/
01
0,
0%
#690000
0#
0$
00
0/
#695000
1!
1#
1-
10
#700000
0"
1$
0.
1/
#705000
0#
0$
00
0/
11
1,
1%
#710000
0!
1"
1$
0-
1.
1/
01
0,
0%
#720000
1!
0"
0$
1-
0.
0/
11
1,
1%
#725000
0!
1$
0-
1/
01
0,
0%
#730000
1#
1!
0$
10
1-
0/
11
1,
1%
#735000
1"
0!
1.
0-
#740000
1$
1/
01
0,
0%
#745000
0#
1!
00
1-
11
1,
1%
#750000
0"
0$
0.
0/
#755000
1#
1"
10
1.
01
0,
0%
#760000
0!
0#
0-
00
#765000
0"
1!
0.
1-
11
1,
1%
#770000
1#
1"
0!
10
1.
0-
#775000
1$
0#
0"
1/
00
0.
01
0,
0%
#780000
0$
1#
0/
10
11
1,
1%
#785000
1"
1.
#790000
1$
0#
0"
1/
00
0.
01
0,
0%
#795000
0$
0/
11
1,
1%
#800000
1!
1#
1"
1$
1-
10
1.
1/
#805000
0#
0"
0$
00
0.
0/
#810000
1"
1$
1.
1/
#815000
1#
10
#820000
0!
0#
0-
00
01
0,
0%
#825000
0$
1#
0/
10
11
1,
1%
#830000
1$
0#
1/
00
01
0,
0%
#835000
1#
10
#840000
0#
00
#845000
1!
0$
1-
0/
11
1,
1%
#850000
0"
1#
1$
0.
10
1/
01
0,
0%
#855000
0!
1"
0#
0$
0-
1.
00
0/
#860000
1#
1$
10
1/
#865000
1!
0#
1-
00
11
1,
1%
#870000
0"
0!
0.
0-
01
0,
0%
#875000
0$
1#
1!
0/
10
1-
11
1,
1%
#880000
1"
1$
0!
1.
1/
0-
01
0,
0%
#885000
0#
0$
1!
00
0/
1-
11
1,
1%
#890000
0"
1#
1$
0!
0.
10
1/
0-
01
0,
0%
#895000
1"
0#
1.
00
#900000
0$
0"
1#
0/
0.
10
11
1,
1%
#905000
1$
1"
1/
1.
01
0,
0%
#910000
0#
0"
00
0.
#915000
0$
0/
11
1,
1%
#920000
1!
1#
1"
1$
1-
10
1.
1/
#925000
0#
0"
0$
00
0.
0/
#930000
0!
1"
1$
0-
1.
1/
01
0,
0%
#935000
1!
0"
0$
1-
0.
0/
11
1,
1%
#940000
1#
1"
1$
10
1.
1/
#945000
0#
00
#950000
0!
0$
1#
0-
0/
10
#955000
1$
1/
01
0,
0%
#960000
0"
1!
0#
0.
1-
00
#965000
1"
0!
1.
0-
#970000
0$
1#
0"
0/
10
0.
11
1,
1%
#975000
1$
1/
01
0,
0%
#980000
0#
00
#985000
1!
1"
1-
1.
11
1,
1%
#990000
1#
0"
10
0.
01
0,
0%
#995000
0$
0!
1"
0/
0-
1.
11
1,
1%
