1a2S/LSD/praticas/trab4/part1/simulation/qsim/FlipFlopD_Demo.msim.vcd
$comment
	File created using the following command:
		vcd file FlipFlopD_Demo.msim.vcd -direction
$end
$date
	Tue Mar 21 13:17:21 2023
$end
$version
	ModelSim Version 2020.1
$end
$timescale
	1ps
$end

$scope module flipflopd_vhd_vec_tst $end
$var wire 1 ! clk $end
$var wire 1 " d $end
$var wire 1 # q $end

$scope module i1 $end
$var wire 1 $ gnd $end
$var wire 1 % vcc $end
$var wire 1 & unknown $end
$var wire 1 ' devoe $end
$var wire 1 ( devclrn $end
$var wire 1 ) devpor $end
$var wire 1 * ww_devoe $end
$var wire 1 + ww_devclrn $end
$var wire 1 , ww_devpor $end
$var wire 1 - ww_clk $end
$var wire 1 . ww_d $end
$var wire 1 / ww_q $end
$var wire 1 0 \q~output_o\ $end
$var wire 1 1 \clk~input_o\ $end
$var wire 1 2 \d~input_o\ $end
$var wire 1 3 \q~reg0_q\ $end
$upscope $end
$upscope $end
$enddefinitions $end
#0
$dumpvars
1!
1"
0#
0$
1%
x&
1'
1(
1)
1*
1+
1,
1-
1.
0/
00
11
12
03
$end
#20000
0"
0.
02
#50000
0!
0-
01
#60000
1"
1.
12
#100000
0"
1!
0.
1-
11
02
13
10
1/
1#
#150000
0!
0-
01
#160000
1"
1.
12
#180000
0"
0.
02
#200000
1"
1!
1.
1-
11
12
03
00
0/
0#
#250000
0!
0-
01
#300000
1!
0"
1-
0.
02
11
13
10
1/
1#
#350000
0!
0-
01
#380000
1"
1.
12
#400000
1!
1-
11
#440000
0"
0.
02
#450000
0!
0-
01
#480000
1"
1.
12
#500000
1!
1-
11
#550000
0!
0-
01
#580000
0"
0.
02
#600000
1"
1!
1.
1-
11
12
03
00
0/
0#
#640000
0"
0.
02
#650000
0!
0-
01
#660000
1"
1.
12
#700000
0"
1!
0.
1-
11
02
13
10
1/
1#
#740000
1"
1.
12
#750000
0!
0-
01
#760000
0"
0.
02
#780000
1"
1.
12
#800000
1!
1-
11
#820000
0"
0.
02
#850000
0!
0-
01
#860000
1"
1.
12
#900000
1!
1-
11
#920000
0"
0.
02
#940000
1"
1.
12
#950000
0!
0-
01
#960000
0"
0.
02
