1a1S/ISD/Aula1113/simulation/qsim/SecDec1101.msim.vcd
$comment
	File created using the following command:
		vcd file SecDec1101.msim.vcd -direction
$end
$date
	Tue Dec 20 12:10:08 2022
$end
$version
	ModelSim Version 2020.1
$end
$timescale
	1ps
$end

$scope module SecDec1101_vlg_vec_tst $end
$var reg 1 ! clk $end
$var reg 1 " x $end
$var wire 1 # y $end

$scope module i1 $end
$var wire 1 $ gnd $end
$var wire 1 % vcc $end
$var wire 1 & unknown $end
$var tri1 1 ' devclrn $end
$var tri1 1 ( devpor $end
$var tri1 1 ) devoe $end
$var wire 1 * y~output_o $end
$var wire 1 + clk~input_o $end
$var wire 1 , x~input_o $end
$var wire 1 - inst10~0_combout $end
$var wire 1 . inst~q $end
$var wire 1 / inst9~combout $end
$var wire 1 0 inst1~q $end
$var wire 1 1 inst3~combout $end
$upscope $end
$upscope $end
$enddefinitions $end
#0
$dumpvars
0!
0"
0#
0$
1%
x&
1'
1(
1)
0*
0+
0,
0-
0.
0/
00
01
$end
#10000
1!
1+
#20000
1"
0!
1,
0+
#30000
1!
1+
#40000
0!
0+
#50000
1!
1+
#60000
0"
0!
0,
0+
#70000
1!
1+
#80000
1"
0!
1,
0+
#90000
1!
1+
#100000
0!
0+
#110000
1!
1+
#120000
0"
0!
0,
0+
#130000
1!
1+
#140000
1"
0!
1,
0+
#150000
1!
1+
#160000
0"
0!
0,
0+
#170000
1!
1+
#180000
1"
0!
1,
0+
#190000
1!
1+
#200000
0"
0!
0,
0+
#210000
1!
1+
#220000
1"
0!
1,
0+
#230000
1!
1+
#240000
0"
0!
0,
0+
#250000
1!
1+
#260000
1"
0!
1,
0+
#270000
1!
1+
#280000
0"
0!
0,
0+
#290000
1!
1+
#300000
1"
0!
1,
0+
#310000
1!
1+
#320000
0"
0!
0,
0+
#330000
1!
1+
#340000
1"
0!
1,
0+
#350000
1!
1+
#360000
0"
0!
0,
0+
#370000
1!
1+
#380000
1"
0!
1,
0+
#390000
1!
1+
#400000
0"
0!
0,
0+
#410000
1!
1+
#420000
1"
0!
1,
0+
#430000
1!
1+
#440000
0"
0!
0,
0+
#450000
1!
1+
#460000
1"
0!
1,
0+
#470000
1!
1+
#480000
0"
0!
0,
0+
#490000
1!
1+
#500000
1"
0!
1,
0+
#510000
1!
1+
#520000
0"
0!
0,
0+
#530000
1!
1+
#540000
1"
0!
1,
0+
#550000
1!
1+
#560000
0"
0!
0,
0+
#570000
1!
1+
#580000
1"
0!
1,
0+
#590000
1!
1+
#600000
0"
0!
0,
0+
#610000
1!
1+
#620000
1"
0!
1,
0+
#630000
1!
1+
#640000
0"
0!
0,
0+
#650000
1!
1+
#660000
1"
0!
1,
0+
#670000
1!
1+
#680000
0"
0!
0,
0+
#690000
1!
1+
#700000
1"
0!
1,
0+
#710000
1!
1+
#720000
0"
0!
0,
0+
#730000
1!
1+
#740000
1"
0!
1,
0+
#750000
1!
1+
#760000
0"
0!
0,
0+
#770000
1!
1+
#780000
1"
0!
1,
0+
#790000
1!
1+
#800000
0"
0!
0,
0+
#810000
1!
1+
#820000
1"
0!
1,
0+
#830000
1!
1+
#840000
0"
0!
0,
0+
#850000
1!
1+
#860000
1"
0!
1,
0+
#870000
1!
1+
#880000
0"
0!
0,
0+
#890000
1!
1+
#900000
1"
0!
1,
0+
#910000
1!
1+
#920000
0"
0!
0,
0+
#930000
1!
1+
#940000
1"
0!
1,
0+
#950000
1!
1+
#960000
0"
0!
0,
0+
#970000
1!
1+
#980000
1"
0!
1,
0+
#990000
1!
1+
